Journal (reproducible report)
…
1.0.1 Step 2: Importing Files —-

bikes_tbl <- read_excel(path ="C:/datascience/DS_101/00_data/01_bike_sales/01_raw_data/bikes.xlsx")
orderlines_tbl <- read_excel("C:/datascience/DS_101/00_data/01_bike_sales/01_raw_data/orderlines.xlsx")
bikeshops_tbl  <- read_excel("C:/datascience/DS_101/00_data/01_bike_sales/01_raw_data/bikeshops.xlsx")

1.0.2 Step 3: Examining Data —-

orderlines_tbl

## # A tibble: 15,644 x 7
##    ...1  order.id order.line order.date          customer.id product.id quantity
##    <chr>    <dbl>      <dbl> <dttm>                    <dbl>      <dbl>    <dbl>
##  1 1            1          1 2015-01-07 00:00:00           2       2681        1
##  2 2            1          2 2015-01-07 00:00:00           2       2411        1
##  3 3            2          1 2015-01-10 00:00:00          10       2629        1
##  4 4            2          2 2015-01-10 00:00:00          10       2137        1
##  5 5            3          1 2015-01-10 00:00:00           6       2367        1
##  6 6            3          2 2015-01-10 00:00:00           6       1973        1
##  7 7            3          3 2015-01-10 00:00:00           6       2422        1
##  8 8            3          4 2015-01-10 00:00:00           6       2655        1
##  9 9            3          5 2015-01-10 00:00:00           6       2247        1
## 10 10           4          1 2015-01-11 00:00:00          22       2408        1
## # ... with 15,634 more rows
…
## Rows: 15,644
## Columns: 7
## $ ...1        <chr> "1", "2", "3", "4", "5", "6", "7", "8", "9", "10", "11"...
## $ order.id    <dbl> 1, 1, 2, 2, 3, 3, 3, 3, 3, 4, 5, 5, 5, 5, 6, 6, 6, 6, 7...
## $ order.line  <dbl> 1, 2, 1, 2, 1, 2, 3, 4, 5, 1, 1, 2, 3, 4, 1, 2, 3, 4, 1...
## $ order.date  <dttm> 2015-01-07, 2015-01-07, 2015-01-10, 2015-01-10, 2015-0...
## $ customer.id <dbl> 2, 2, 10, 10, 6, 6, 6, 6, 6, 22, 8, 8, 8, 8, 16, 16, 16...
## $ product.id  <dbl> 2681, 2411, 2629, 2137, 2367, 1973, 2422, 2655, 2247, 2...
## $ quantity    <dbl> 1, 1, 1, 1, 1, 1, 1, 1, 1, 1, 1, 2, 1, 1, 1, 1, 1, 1, 1...

1.0.3 Step 4: Joining Data —-

left_join(orderlines_tbl, bikes_tbl, by = c("product.id" = "bike.id"))

## # A tibble: 15,644 x 15
##    ...1  order.id order.line order.date          customer.id product.id quantity
##    <chr>    <dbl>      <dbl> <dttm>                    <dbl>      <dbl>    <dbl>
##  1 1            1          1 2015-01-07 00:00:00           2       2681        1
##  2 2            1          2 2015-01-07 00:00:00           2       2411        1
##  3 3            2          1 2015-01-10 00:00:00          10       2629        1
##  4 4            2          2 2015-01-10 00:00:00          10       2137        1
##  5 5            3          1 2015-01-10 00:00:00           6       2367        1
##  6 6            3          2 2015-01-10 00:00:00           6       1973        1
##  7 7            3          3 2015-01-10 00:00:00           6       2422        1
##  8 8            3          4 2015-01-10 00:00:00           6       2655        1
##  9 9            3          5 2015-01-10 00:00:00           6       2247        1
## 10 10           4          1 2015-01-11 00:00:00          22       2408        1
## # ... with 15,634 more rows, and 8 more variables: model <chr>,
## #   model.year <dbl>, frame.material <chr>, weight <dbl>, price <dbl>,
## #   category <chr>, gender <chr>, url <chr>
…
1.0.5.2.1 Step 1 - Manipulate

  sales_by_year_state_tbl <- bike_orderlines_wrangled_tbl %>%
   select(order_date, total_price, State) %>%
   mutate(year = year(order_date)) %>%
   group_by(year, State) %>%
   summarise(sales = sum(total_price)) %>%
   ungroup() %>%
   mutate(sales_text = scales::dollar(sales, big.mark = ".", 
                                       decimal.mark = ",", 
                                       prefix = "", 
                                       suffix = " €"))
  sales_by_year_state_tbl

## # A tibble: 60 x 4
##     year State                              sales sales_text 
##    <dbl> <chr>                              <dbl> <chr>      
##  1  2015 " Baden-Württemberg"             1031924 1.031.924 €
##  2  2015 " Bavaria"                       1301461 1.301.461 €
##  3  2015 " Berlin"                          95853 95.853 €   
##  4  2015 " Bremen"                        1395912 1.395.912 €
##  5  2015 " Hamburg"                        423090 423.090 €  
##  6  2015 " Hesse"                          308609 308.609 €  
##  7  2015 " Lower Saxony"                   584386 584.386 €  
##  8  2015 " Mecklenburg-Western Pomerania"  222003 222.003 €  
##  9  2015 " North Rhine-Westphalia"        3735092 3.735.092 €
## 10  2015 " Saxony"                         238371 238.371 €  
## # ... with 50 more rows
…
